{
  "_class": "artboard",
  "backgroundColor": {
    "_class": "color",
    "alpha": 1,
    "blue": 1,
    "do_objectID": "FA9A5D09-D6FC-4CE7-95D5-CA08D4699402",
    "green": 1,
    "red": 1
  },
  "booleanOperation": -1,
  "do_objectID": "0F6AF042-9169-4DC0-A6F4-9BB2A74F8C1C",
  "exportOptions": {
    "_class": "exportOptions",
    "do_objectID": "CD809039-7BB1-4EEB-8D94-7EEFC7DD761A",
    "exportFormats": [
    ],
    "includedLayerIds": [
    ],
    "layerOptions": 0,
    "shouldTrim": false
  },
  "frame": {
    "_class": "rect",
    "constrainProportions": false,
    "do_objectID": "A46933A4-94C1-4896-816D-92AFE23248CA",
    "height": 344,
    "width": 239,
    "x": 408,
    "y": 88
  },
  "hasBackgroundColor": false,
  "hasClickThrough": true,
  "horizontalRulerData": {
    "_class": "rulerData",
    "base": 0,
    "do_objectID": "88BFB292-6613-4A38-BD35-1B567333CF46",
    "guides": [
    ]
  },
  "includeBackgroundColorInExport": true,
  "includeInCloudUpload": true,
  "isFixedToViewport": false,
  "isFlippedHorizontal": false,
  "isFlippedVertical": false,
  "isFlowHome": false,
  "isLocked": false,
  "isVisible": true,
  "layerListExpandedType": 0,
  "layers": [
    {
      "class": "shapeGroup",
      "id": "B7D4802C-DC77-4138-B77A-F98DE9BF999F"
    },
    {
      "class": "shapeGroup",
      "id": "16AAAD45-C2B7-4707-B0C0-EF5720F23865"
    }
  ],
  "name": "Artboard",
  "nameIsFixed": false,
  "resizesContent": false,
  "resizingConstraint": 63,
  "resizingType": 0,
  "rotation": 0,
  "shouldBreakMaskChain": true,
  "style": {
    "_class": "style",
    "do_objectID": "CD007CF0-60E7-486F-A0DD-838B8983C0D8",
    "endMarkerType": 0,
    "miterLimit": 10,
    "startMarkerType": 0,
    "windingRule": 1
  },
  "verticalRulerData": {
    "_class": "rulerData",
    "base": 0,
    "do_objectID": "40D0BDCA-72AA-4E67-AB26-49041C9717DF",
    "guides": [
    ]
  }
}