{
  "_class": "document",
  "assets": {
    "_class": "assetCollection",
    "colors": [
    ],
    "gradients": [
    ],
    "imageCollection": {
      "_class": "imageCollection",
      "images": {
      }
    },
    "images": [
    ]
  },
  "colorSpace": 0,
  "do_objectID": "45C64B2C-081E-40A9-8DF0-C8D259317C52",
  "foreignLayerStyles": [
  ],
  "foreignSymbols": [
  ],
  "foreignTextStyles": [
  ],
  "layerSymbols": {
    "_class": "symbolContainer",
    "objects": [
    ]
  },
  "meta": {
    "appVersion": "51.2",
    "build": 57519,
    "version": 105
  },
  "pages": [
    "Page 1"
  ]
}